<?xml version="1.0" encoding="UTF-8" standalone="no"?>
<svg
   inkscape:version="1.2.2 (b0a8486541, 2022-12-01)"
   id="svg8"
   version="1.1"
   viewBox="0 0 146.96079 134.04939"
   height="506.64334"
   width="555.44238"
   xml:space="preserve"
   sodipodi:docname="icon.svg"
   xmlns:inkscape="http://www.inkscape.org/namespaces/inkscape"
   xmlns:sodipodi="http://sodipodi.sourceforge.net/DTD/sodipodi-0.dtd"
   xmlns:xlink="http://www.w3.org/1999/xlink"
   xmlns="http://www.w3.org/2000/svg"
   xmlns:svg="http://www.w3.org/2000/svg"
   xmlns:rdf="http://www.w3.org/1999/02/22-rdf-syntax-ns#"
   xmlns:cc="http://creativecommons.org/ns#"
   xmlns:dc="http://purl.org/dc/elements/1.1/"><defs
     id="defs2"><linearGradient
       inkscape:collect="always"
       id="linearGradient1538"><stop
         style="stop-color:#33d17a;stop-opacity:1"
         offset="0"
         id="stop1534" /><stop
         style="stop-color:#a347ba;stop-opacity:1"
         offset="1"
         id="stop1536" /></linearGradient><inkscape:path-effect
       effect="offset"
       id="path-effect1493"
       is_visible="true"
       lpeversion="1.2"
       linejoin_type="miter"
       unit="px"
       offset="-8"
       miter_limit="4"
       attempt_force_join="false"
       update_on_knot_move="true" /><linearGradient
       inkscape:collect="always"
       id="linearGradient1375"><stop
         style="stop-color:#33d17a;stop-opacity:1"
         offset="0"
         id="stop1371" /><stop
         style="stop-color:#a347ba;stop-opacity:1"
         offset="1"
         id="stop1373" /></linearGradient><inkscape:path-effect
       effect="offset"
       id="path-effect1314"
       is_visible="true"
       lpeversion="1.2"
       linejoin_type="miter"
       unit="px"
       offset="-8"
       miter_limit="4"
       attempt_force_join="false"
       update_on_knot_move="true" /><inkscape:path-effect
       effect="offset"
       id="path-effect1291"
       is_visible="true"
       lpeversion="1.2"
       linejoin_type="miter"
       unit="px"
       offset="0"
       miter_limit="4"
       attempt_force_join="false"
       update_on_knot_move="true" /><inkscape:path-effect
       effect="offset"
       id="path-effect1285"
       is_visible="true"
       lpeversion="1.2"
       linejoin_type="miter"
       unit="px"
       offset="-6"
       miter_limit="4"
       attempt_force_join="false"
       update_on_knot_move="true" /><linearGradient
       inkscape:collect="always"
       id="linearGradient1259"><stop
         style="stop-color:#2ec27e;stop-opacity:1"
         offset="0"
         id="stop1255" /><stop
         style="stop-color:#a347ba;stop-opacity:1"
         offset="1"
         id="stop1257" /></linearGradient><linearGradient
       inkscape:collect="always"
       id="linearGradient593"><stop
         style="stop-color:#3d3846;stop-opacity:1"
         offset="0"
         id="stop589" /><stop
         style="stop-color:#241f31;stop-opacity:1"
         offset="0.50702131"
         id="stop595" /><stop
         style="stop-color:#3d3846;stop-opacity:1"
         offset="1"
         id="stop591" /></linearGradient><linearGradient
       inkscape:collect="always"
       id="linearGradient540"><stop
         style="stop-color:#241f31;stop-opacity:1"
         offset="0"
         id="stop536" /><stop
         style="stop-color:#77767b;stop-opacity:1"
         offset="0.04794141"
         id="stop552" /><stop
         style="stop-color:#5e5c64;stop-opacity:1"
         offset="0.09374683"
         id="stop554" /><stop
         style="stop-color:#5e5c64;stop-opacity:1"
         offset="0.89429963"
         id="stop550" /><stop
         style="stop-color:#77767b;stop-opacity:1"
         offset="0.94547361"
         id="stop548" /><stop
         style="stop-color:#241f31;stop-opacity:1"
         offset="1"
         id="stop538" /></linearGradient><linearGradient
       inkscape:collect="always"
       id="linearGradient534"><stop
         style="stop-color:#9a9996;stop-opacity:1"
         offset="0"
         id="stop530" /><stop
         style="stop-color:#3d3846;stop-opacity:1"
         offset="1"
         id="stop532" /></linearGradient><linearGradient
       inkscape:collect="always"
       id="linearGradient3130"><stop
         style="stop-color:#c0bfbc;stop-opacity:1"
         offset="0"
         id="stop3126" /><stop
         style="stop-color:#241f31;stop-opacity:1"
         offset="1"
         id="stop3128" /></linearGradient><linearGradient
       inkscape:collect="always"
       id="linearGradient3105"><stop
         style="stop-color:#3d3846;stop-opacity:1"
         offset="0"
         id="stop3101" /><stop
         style="stop-color:#241f31;stop-opacity:1"
         offset="1"
         id="stop3103" /></linearGradient><linearGradient
       inkscape:collect="always"
       id="linearGradient711"><stop
         style="stop-color:#5e5c64;stop-opacity:1"
         offset="0"
         id="stop707" /><stop
         style="stop-color:#241f31;stop-opacity:1"
         offset="1"
         id="stop709" /></linearGradient><linearGradient
       inkscape:collect="always"
       xlink:href="#linearGradient711"
       id="linearGradient713"
       x1="234.29083"
       y1="73.362671"
       x2="234.29083"
       y2="127.28387"
       gradientUnits="userSpaceOnUse"
       gradientTransform="translate(-146.80935,-261.23479)" /><linearGradient
       inkscape:collect="always"
       xlink:href="#linearGradient711"
       id="linearGradient871"
       gradientUnits="userSpaceOnUse"
       gradientTransform="matrix(1,0,0,0.95973059,-53.533092,-252.88128)"
       x1="234.29083"
       y1="81.562561"
       x2="234.29083"
       y2="127.28387" /><linearGradient
       inkscape:collect="always"
       xlink:href="#linearGradient593"
       id="linearGradient2468"
       gradientUnits="userSpaceOnUse"
       gradientTransform="matrix(0.83367314,0,0,0.87818094,91.596552,-245.40655)"
       x1="188.16393"
       y1="107.40469"
       x2="280.75583"
       y2="107.40469" /><linearGradient
       inkscape:collect="always"
       xlink:href="#linearGradient711"
       id="linearGradient2533"
       gradientUnits="userSpaceOnUse"
       gradientTransform="matrix(1,0,0,0.95973059,52.627693,-349.77971)"
       x1="234.29083"
       y1="81.562561"
       x2="234.29083"
       y2="127.28387" /><linearGradient
       inkscape:collect="always"
       xlink:href="#linearGradient534"
       id="linearGradient3099"
       x1="339.27271"
       y1="91.225945"
       x2="339.27271"
       y2="113.73744"
       gradientUnits="userSpaceOnUse"
       gradientTransform="matrix(0.83367314,0,0,1,12.894936,-268.75179)" /><linearGradient
       inkscape:collect="always"
       xlink:href="#linearGradient3130"
       id="linearGradient3115"
       gradientUnits="userSpaceOnUse"
       x1="339.27271"
       y1="83.120338"
       x2="339.27271"
       y2="109.26456"
       gradientTransform="matrix(0.76492168,0,0,0.99967603,35.49313,-273.18999)" /><linearGradient
       inkscape:collect="always"
       xlink:href="#linearGradient540"
       id="linearGradient542"
       x1="293.45892"
       y1="109.13029"
       x2="363.92465"
       y2="109.13029"
       gradientUnits="userSpaceOnUse"
       gradientTransform="matrix(0.83367314,0,0,0.9150286,12.894936,-259.19108)" /><linearGradient
       inkscape:collect="always"
       xlink:href="#linearGradient3105"
       id="linearGradient565"
       gradientUnits="userSpaceOnUse"
       gradientTransform="matrix(1,0,0,0.95973059,158.19074,-327.89169)"
       x1="234.29083"
       y1="91.658623"
       x2="234.29083"
       y2="130.27345" /><linearGradient
       inkscape:collect="always"
       xlink:href="#linearGradient540"
       id="linearGradient567"
       gradientUnits="userSpaceOnUse"
       x1="293.45892"
       y1="109.13029"
       x2="363.92465"
       y2="109.13029"
       gradientTransform="translate(63.787292,-341.36878)" /><linearGradient
       inkscape:collect="always"
       xlink:href="#linearGradient534"
       id="linearGradient569"
       gradientUnits="userSpaceOnUse"
       x1="339.27271"
       y1="91.225945"
       x2="339.27271"
       y2="113.73744"
       gradientTransform="translate(63.787292,-341.36878)" /><linearGradient
       inkscape:collect="always"
       xlink:href="#linearGradient3130"
       id="linearGradient571"
       gradientUnits="userSpaceOnUse"
       gradientTransform="matrix(0.91753188,0,0,0.99967603,90.894072,-345.80698)"
       x1="339.27271"
       y1="83.120338"
       x2="339.27271"
       y2="109.26456" /><linearGradient
       inkscape:collect="always"
       xlink:href="#linearGradient3105"
       id="linearGradient581"
       gradientUnits="userSpaceOnUse"
       gradientTransform="matrix(1,0,0,0.95973059,184.61139,-252.88128)"
       x1="234.29083"
       y1="91.658623"
       x2="234.29083"
       y2="130.27345" /><linearGradient
       inkscape:collect="always"
       xlink:href="#linearGradient540"
       id="linearGradient583"
       gradientUnits="userSpaceOnUse"
       gradientTransform="translate(90.207952,-267.94588)"
       x1="293.45892"
       y1="109.13029"
       x2="363.92465"
       y2="109.13029" /><linearGradient
       inkscape:collect="always"
       xlink:href="#linearGradient534"
       id="linearGradient585"
       gradientUnits="userSpaceOnUse"
       x1="339.27271"
       y1="91.225945"
       x2="339.27271"
       y2="113.73744"
       gradientTransform="translate(90.207952,-266.35838)" /><linearGradient
       inkscape:collect="always"
       xlink:href="#linearGradient3130"
       id="linearGradient587"
       gradientUnits="userSpaceOnUse"
       gradientTransform="matrix(0.91753188,0,0,0.99967603,117.31473,-270.79658)"
       x1="339.27271"
       y1="83.120338"
       x2="339.27271"
       y2="109.26456" /><linearGradient
       inkscape:collect="always"
       xlink:href="#linearGradient593"
       id="linearGradient611"
       gradientUnits="userSpaceOnUse"
       gradientTransform="matrix(1,0,0,0.95973059,171.65287,-168.74246)"
       x1="188.16393"
       y1="107.40469"
       x2="280.75583"
       y2="107.40469" /><linearGradient
       inkscape:collect="always"
       xlink:href="#linearGradient540"
       id="linearGradient613"
       gradientUnits="userSpaceOnUse"
       gradientTransform="translate(77.249432,-183.80705)"
       x1="293.45892"
       y1="109.13029"
       x2="363.92465"
       y2="109.13029" /><linearGradient
       inkscape:collect="always"
       xlink:href="#linearGradient534"
       id="linearGradient615"
       gradientUnits="userSpaceOnUse"
       x1="339.27271"
       y1="91.225945"
       x2="339.27271"
       y2="113.73744"
       gradientTransform="translate(77.249432,-182.21955)" /><linearGradient
       inkscape:collect="always"
       xlink:href="#linearGradient3130"
       id="linearGradient617"
       gradientUnits="userSpaceOnUse"
       gradientTransform="matrix(0.91753188,0,0,0.99967603,104.35621,-186.65775)"
       x1="339.27271"
       y1="83.120338"
       x2="339.27271"
       y2="109.26456" /><linearGradient
       inkscape:collect="always"
       xlink:href="#linearGradient1259"
       id="linearGradient1273"
       gradientUnits="userSpaceOnUse"
       gradientTransform="matrix(0.98086087,0,0,0.97997699,-131.85463,-365.96422)"
       x1="293.47238"
       y1="101.08376"
       x2="363.91614"
       y2="133.09097" /><linearGradient
       inkscape:collect="always"
       xlink:href="#linearGradient593"
       id="linearGradient1275"
       gradientUnits="userSpaceOnUse"
       gradientTransform="matrix(1,0,0,0.87818094,-43.742117,-347.35683)"
       x1="188.16393"
       y1="107.40469"
       x2="280.75583"
       y2="107.40469" /><linearGradient
       inkscape:collect="always"
       xlink:href="#linearGradient540"
       id="linearGradient1277"
       gradientUnits="userSpaceOnUse"
       gradientTransform="matrix(1,0,0,0.9150286,-138.14556,-361.14137)"
       x1="293.45892"
       y1="109.13029"
       x2="363.92465"
       y2="109.13029" /><linearGradient
       inkscape:collect="always"
       xlink:href="#linearGradient534"
       id="linearGradient1279"
       gradientUnits="userSpaceOnUse"
       gradientTransform="translate(-138.14556,-370.70208)"
       x1="339.27271"
       y1="91.225945"
       x2="339.27271"
       y2="113.73744" /><linearGradient
       inkscape:collect="always"
       xlink:href="#linearGradient3130"
       id="linearGradient1281"
       gradientUnits="userSpaceOnUse"
       gradientTransform="matrix(0.91753188,0,0,0.99967603,-111.03878,-375.14028)"
       x1="339.27271"
       y1="83.120338"
       x2="339.27271"
       y2="109.26456" /><linearGradient
       inkscape:collect="always"
       xlink:href="#linearGradient3130"
       id="linearGradient1316"
       gradientUnits="userSpaceOnUse"
       gradientTransform="matrix(0.76492168,0,0,0.99967603,35.49313,-168.72288)"
       x1="339.27271"
       y1="83.120338"
       x2="339.27271"
       y2="109.26456" /><linearGradient
       inkscape:collect="always"
       xlink:href="#linearGradient534"
       id="linearGradient1318"
       gradientUnits="userSpaceOnUse"
       gradientTransform="matrix(0.83367314,0,0,1,12.894936,-164.28468)"
       x1="339.27271"
       y1="91.225945"
       x2="339.27271"
       y2="113.73744" /><linearGradient
       inkscape:collect="always"
       xlink:href="#linearGradient540"
       id="linearGradient1320"
       gradientUnits="userSpaceOnUse"
       gradientTransform="matrix(0.83367314,0,0,0.9150286,12.894936,-154.72398)"
       x1="293.45892"
       y1="109.13029"
       x2="363.92465"
       y2="109.13029" /><linearGradient
       inkscape:collect="always"
       xlink:href="#linearGradient593"
       id="linearGradient1322"
       gradientUnits="userSpaceOnUse"
       gradientTransform="matrix(0.83367314,0,0,0.87818094,91.596552,-140.93944)"
       x1="188.16393"
       y1="107.40469"
       x2="280.75583"
       y2="107.40469" /><linearGradient
       inkscape:collect="always"
       xlink:href="#linearGradient1375"
       id="linearGradient1353"
       gradientUnits="userSpaceOnUse"
       gradientTransform="matrix(0.83367314,0,0,0.87818094,91.596552,-245.40655)"
       x1="199.06876"
       y1="91.658356"
       x2="269.5127"
       y2="127.28383" /><linearGradient
       inkscape:collect="always"
       xlink:href="#linearGradient593"
       id="linearGradient1495"
       gradientUnits="userSpaceOnUse"
       gradientTransform="matrix(0.83367314,0,0,0.87818094,-23.873838,-140.93944)"
       x1="188.16393"
       y1="107.40469"
       x2="280.75583"
       y2="107.40469" /><linearGradient
       inkscape:collect="always"
       xlink:href="#linearGradient540"
       id="linearGradient1497"
       gradientUnits="userSpaceOnUse"
       gradientTransform="matrix(0.83367314,0,0,0.9150286,-102.57545,-154.72398)"
       x1="293.45892"
       y1="109.13029"
       x2="363.92465"
       y2="109.13029" /><linearGradient
       inkscape:collect="always"
       xlink:href="#linearGradient534"
       id="linearGradient1499"
       gradientUnits="userSpaceOnUse"
       gradientTransform="matrix(0.83367314,0,0,1,-102.57545,-164.28468)"
       x1="339.27271"
       y1="91.225945"
       x2="339.27271"
       y2="113.73744" /><linearGradient
       inkscape:collect="always"
       xlink:href="#linearGradient3130"
       id="linearGradient1501"
       gradientUnits="userSpaceOnUse"
       gradientTransform="matrix(0.76492168,0,0,0.99967603,-79.97726,-168.72288)"
       x1="339.27271"
       y1="83.120338"
       x2="339.27271"
       y2="109.26456" /><linearGradient
       inkscape:collect="always"
       xlink:href="#linearGradient1375"
       id="linearGradient1512"
       x1="299.33072"
       y1="205.91199"
       x2="358.05774"
       y2="237.1974"
       gradientUnits="userSpaceOnUse"
       gradientTransform="translate(-41.775748,-266.35838)" /><linearGradient
       inkscape:collect="always"
       xlink:href="#linearGradient1538"
       id="linearGradient1524"
       gradientUnits="userSpaceOnUse"
       x1="304.9838"
       y1="211.8382"
       x2="351.21594"
       y2="230.02065"
       gradientTransform="translate(-71.13937,-87.306529)"
       spreadMethod="pad" /><linearGradient
       inkscape:collect="always"
       xlink:href="#linearGradient593"
       id="linearGradient1526"
       gradientUnits="userSpaceOnUse"
       gradientTransform="matrix(0.83367314,0,0,0.87818094,62.23293,38.11241)"
       x1="188.16393"
       y1="107.40469"
       x2="280.75583"
       y2="107.40469" /><linearGradient
       inkscape:collect="always"
       xlink:href="#linearGradient540"
       id="linearGradient1528"
       gradientUnits="userSpaceOnUse"
       gradientTransform="matrix(0.83367314,0,0,0.9150286,-16.46869,24.32787)"
       x1="293.45892"
       y1="109.13029"
       x2="363.92465"
       y2="109.13029" /><linearGradient
       inkscape:collect="always"
       xlink:href="#linearGradient534"
       id="linearGradient1530"
       gradientUnits="userSpaceOnUse"
       gradientTransform="matrix(0.83367314,0,0,1,-16.46869,14.76717)"
       x1="339.27271"
       y1="91.225945"
       x2="339.27271"
       y2="113.73744" /><linearGradient
       inkscape:collect="always"
       xlink:href="#linearGradient3130"
       id="linearGradient1532"
       gradientUnits="userSpaceOnUse"
       gradientTransform="matrix(0.76492168,0,0,0.99967603,6.12951,10.32897)"
       x1="339.27271"
       y1="83.120338"
       x2="339.27271"
       y2="109.26456" /></defs><sodipodi:namedview
     units="px"
     showgrid="false"
     inkscape:document-rotation="0"
     inkscape:current-layer="layer1"
     inkscape:document-units="px"
     inkscape:cy="265.99999"
     inkscape:cx="686.49998"
     inkscape:zoom="1"
     inkscape:pageshadow="2"
     inkscape:pageopacity="0"
     borderopacity="1.0"
     bordercolor="#666666"
     pagecolor="#ffffff"
     id="base"
     inkscape:showpageshadow="0"
     inkscape:pagecheckerboard="0"
     inkscape:deskcolor="#d1d1d1"
     inkscape:window-width="2560"
     inkscape:window-height="1371"
     inkscape:window-x="0"
     inkscape:window-y="32"
     inkscape:window-maximized="1" /><metadata
     id="metadata5"><rdf:RDF><cc:Work
         rdf:about=""><dc:format>image/svg+xml</dc:format><dc:type
           rdf:resource="http://purl.org/dc/dcmitype/StillImage" /></cc:Work></rdf:RDF></metadata><g
     id="layer1"
     inkscape:groupmode="layer"
     inkscape:label="Layer 1"
     transform="translate(-184.07449,-62.086579)"><path
       style="fill:#5e5c64;fill-opacity:1;stroke:none;stroke-width:0.264583px;stroke-linecap:butt;stroke-linejoin:miter;stroke-opacity:1"
       d="m 159.74607,-207.32101 -11.90702,50.09268 h 65.83736 l -11.907,-50.09268 z"
       id="path991"
       sodipodi:nodetypes="ccccc" /><rect
       style="fill:url(#linearGradient713);fill-opacity:1;stroke-width:0.555625;stroke-linecap:round;paint-order:markers fill stroke"
       id="rect232"
       width="70.444145"
       height="35.625427"
       x="52.259422"
       y="-169.57634"
       rx="4.7624998"
       ry="4.7624998" /><path
       style="fill:#ffffff;stroke:#000000;stroke-width:0.264583px;stroke-linecap:butt;stroke-linejoin:miter;stroke-opacity:1"
       d="m 66.303862,-122.0068 10.37556,-11.94412 c 5.01959,0 5.15016,-7.47107 10.80207,-7.47107 5.65192,0 5.76618,7.47107 10.78577,7.47107 l 8.610598,11.55163"
       id="path448"
       sodipodi:nodetypes="ccccc" /><path
       style="fill:#ffffff;stroke:#000000;stroke-width:0.264583px;stroke-linecap:butt;stroke-linejoin:miter;stroke-opacity:1"
       d="m 52.259424,-156.06479 c 0,-9.44296 12.915208,-13.09697 24.643598,-13.51155 l -22.031448,-7.1536 -11.78426,13.66291 z"
       id="path548"
       sodipodi:nodetypes="cc" /><path
       style="fill:#ffffff;stroke:#000000;stroke-width:0.264583px;stroke-linecap:butt;stroke-linejoin:miter;stroke-opacity:1"
       d="m 122.70357,-156.06479 c 0,-9.44296 -12.91521,-13.09697 -24.643598,-13.51155 l 22.031448,-7.1536 11.78426,13.66291 z"
       id="path550"
       sodipodi:nodetypes="cc" /><path
       style="fill:#ffffff;stroke:#000000;stroke-width:0.264583px;stroke-linecap:butt;stroke-linejoin:miter;stroke-opacity:1"
       d="m 52.259424,-151.59529 c 0,9.44296 12.691618,17.22979 24.420008,17.64437 l -21.807858,7.03427 -11.78426,-13.66291 z"
       id="path554"
       sodipodi:nodetypes="ccccc" /><path
       style="fill:#ffffff;stroke:#000000;stroke-width:0.264583px;stroke-linecap:butt;stroke-linejoin:miter;stroke-opacity:1"
       d="m 122.70357,-151.59529 c 0,9.44296 -12.70793,17.22979 -24.436318,17.64437 l 21.824168,7.03427 11.78426,-13.66291 z"
       id="path558"
       sodipodi:nodetypes="ccccc" /><path
       id="rect859"
       style="fill:url(#linearGradient871);fill-opacity:1;stroke-width:0.555625;stroke-linecap:round;paint-order:markers fill stroke"
       d="m 170.17931,-164.9137 c -11.72837,0.39789 -24.64346,3.90455 -24.64346,12.96723 v 4.2895 c 0,9.06268 12.69133,16.53599 24.4197,16.93387 5.01959,0 5.15055,-7.17 10.80244,-7.17 5.65192,0 5.76582,7.17 10.78539,7.17 11.72837,-0.39788 24.43624,-7.87119 24.43624,-16.93387 v -4.2895 c 0,-9.06268 -12.91509,-12.56934 -24.64346,-12.96723 z" /><ellipse
       style="fill:#ffffff;stroke:none;stroke-width:0.555625;stroke-linecap:round;paint-order:markers fill stroke"
       id="path979"
       cx="180.75774"
       cy="-181.69312"
       rx="31.39658"
       ry="13.309269" /><path
       id="path3113"
       style="fill:url(#linearGradient3115);fill-opacity:1;stroke:none;stroke-width:0.264583px;stroke-linecap:butt;stroke-linejoin:miter;stroke-opacity:1"
       d="m 265.16415,-181.19805 c -1.20931,0 -1.77867,2.78107 -2.19541,6.33865 4.14452,0.54808 13.97666,5.46361 23.94947,5.46663 9.97283,-0.003 19.80536,-4.91855 23.94989,-5.46663 -0.41674,-3.55758 -0.98651,-6.33865 -2.19581,-6.33865 -3.23081,0 -12.42445,4.87233 -21.75408,4.87513 -9.3296,-0.003 -18.52326,-4.87513 -21.75406,-4.87513 z" /><path
       id="path2473"
       style="fill:url(#linearGradient3099);fill-opacity:1;stroke:none;stroke-width:0.264583px;stroke-linecap:butt;stroke-linejoin:miter;stroke-opacity:1"
       d="m 263.20908,-176.73001 c -2.60169,0 -3.37153,12.94462 -4.61615,19.22519 l 28.32549,-2.11667 28.32549,2.11667 c -1.24461,-6.28057 -2.01445,-19.22519 -4.61615,-19.22519 -3.5212,0 -13.54117,4.8739 -23.70934,4.8767 -10.16817,-0.003 -20.18815,-4.8767 -23.70934,-4.8767 z"
       sodipodi:nodetypes="scccscs" /><path
       id="path355"
       style="fill:url(#linearGradient542);fill-opacity:1;stroke-width:0.555625;stroke-linecap:round;paint-order:markers fill stroke"
       d="m 278.09957,-167.81892 c -9.77763,0.36408 -20.5446,3.57276 -20.5446,11.86538 v 3.92501 c 0,8.29261 10.58043,15.1309 20.35805,15.49498 4.1847,0 4.29388,-6.56076 9.00571,-6.56076 4.71185,0 4.80681,6.56076 8.99149,6.56076 9.77762,-0.36408 20.37183,-7.20237 20.37183,-15.49498 v -3.92501 c 0,-8.29262 -10.76696,-11.5013 -20.54459,-11.86538 z" /><path
       id="path1287"
       style="fill:url(#linearGradient2468);fill-opacity:1;stroke-width:0.555625;stroke-linecap:round;paint-order:markers fill stroke"
       d="m 278.09957,-164.9137 c -9.77763,0.36408 -20.5446,3.57278 -20.5446,11.86539 v 3.92502 c 0,8.29261 10.58043,15.1309 20.35805,15.49497 4.1847,0 4.29388,-6.56075 9.00571,-6.56075 4.71185,0 4.80681,6.56075 8.99149,6.56075 9.77762,-0.36407 20.37183,-7.20236 20.37183,-15.49497 v -3.92502 c 0,-8.29261 -10.76696,-11.50131 -20.54459,-11.86539 z" /><path
       id="path1348"
       style="fill:url(#linearGradient1353);fill-opacity:1;stroke-width:0.555625;stroke-linecap:round;paint-order:markers fill stroke"
       d="m 278.09982,-164.91393 c -9.77762,0.36408 -20.545,3.57283 -20.545,11.86543 v 3.92534 c 0,8.2926 10.58084,15.13059 20.35845,15.49466 4.18469,0 4.29382,-6.56032 9.00565,-6.56032 4.71184,0 4.8065,6.56032 8.99118,6.56032 9.77761,-0.36407 20.37188,-7.20206 20.37188,-15.49466 v -3.92534 c 0,-8.2926 -10.76686,-11.50135 -20.54448,-11.86543 z m 0.0403,1.58854 h 17.55655 c 9.46964,0.35595 18.99832,3.35796 18.99832,10.27741 v 3.92379 c 0,7.18169 -9.59903,13.54173 -18.79679,13.90458 -3.01359,-0.0191 -3.24639,-6.55671 -8.97878,-6.55671 -5.73094,0 -5.97846,6.53767 -8.99376,6.55671 -9.19765,-0.36285 -18.78335,-6.72148 -18.78335,-13.90458 v -3.92379 c 0,-6.91945 9.52816,-9.92146 18.99781,-10.27741 z" /><path
       style="fill:#5e5c64;fill-opacity:1;stroke:none;stroke-width:0.264583px;stroke-linecap:butt;stroke-linejoin:miter;stroke-opacity:1"
       d="m 258.47879,-271.23478 c -3.12078,0 -2.98586,10.82769 -4.47879,17.10827 h 65.83732 l -4.47879,-18.84175 c -5.15349,4.68624 -16.24309,6.6072 -28.44013,6.60988 -12.19685,-0.003 -24.2159,-4.8764 -28.43961,-4.8764 z"
       id="path2529"
       sodipodi:nodetypes="cccccc" /><path
       id="path2531"
       style="fill:url(#linearGradient2533);fill-opacity:1;stroke-width:0.555625;stroke-linecap:round;paint-order:markers fill stroke"
       d="m 276.34009,-261.81212 c -11.72837,0.39789 -24.64346,3.90455 -24.64346,12.96723 v 4.2895 c 0,9.06268 12.69133,16.53599 24.4197,16.93387 5.01959,0 5.15055,-7.17 10.80244,-7.17 5.65192,0 5.76582,7.17 10.78539,7.17 11.72837,-0.39788 24.43624,-7.87119 24.43624,-16.93387 v -4.2895 c 0,-9.06268 -12.91509,-12.56934 -24.64346,-12.96723 z" /><path
       id="path556"
       style="fill:url(#linearGradient571);fill-opacity:1;stroke:none;stroke-width:0.264583px;stroke-linecap:butt;stroke-linejoin:miter;stroke-opacity:1"
       d="m 366.38696,-253.81504 c -1.45058,0 -2.13354,2.78107 -2.63342,6.33865 4.9714,0.54807 16.76516,5.4636 28.72765,5.46662 11.96252,-0.003 23.75675,-4.91854 28.72815,-5.46662 -0.49988,-3.55758 -1.18332,-6.33865 -2.6339,-6.33865 -3.87538,0 -14.90326,4.87233 -26.09425,4.87513 -11.19096,-0.003 -22.21885,-4.87513 -26.09423,-4.87513 z" /><path
       id="path559"
       style="fill:url(#linearGradient569);fill-opacity:1;stroke:none;stroke-width:0.264583px;stroke-linecap:butt;stroke-linejoin:miter;stroke-opacity:1"
       d="m 364.04183,-249.34701 c -3.12076,0 -2.98586,10.82796 -4.47879,17.10852 h 32.9184 32.91841 c -1.49293,-6.28056 -1.35803,-17.10852 -4.4788,-17.10852 -4.22371,0 -16.24278,4.87391 -28.43961,4.87671 -12.19683,-0.003 -24.2159,-4.87671 -28.43961,-4.87671 z" /><path
       id="path561"
       style="fill:url(#linearGradient567);fill-opacity:1;stroke-width:0.555625;stroke-linecap:round;paint-order:markers fill stroke"
       d="m 381.90313,-241.51161 c -11.72837,0.39789 -24.64346,3.90455 -24.64346,12.96723 v 4.2895 c 0,9.06268 12.69133,16.53599 24.4197,16.93387 5.01959,0 5.15055,-7.17 10.80244,-7.17 5.65192,0 5.76582,7.17 10.78539,7.17 11.72837,-0.39788 24.43624,-7.87119 24.43624,-16.93387 v -4.2895 c 0,-9.06268 -12.91509,-12.56934 -24.64346,-12.96723 z" /><path
       id="path563"
       style="fill:url(#linearGradient565);fill-opacity:1;stroke-width:0.555625;stroke-linecap:round;paint-order:markers fill stroke"
       d="m 381.90313,-239.9241 c -11.72837,0.39789 -24.64346,3.90455 -24.64346,12.96723 v 4.2895 c 0,9.06268 12.69133,16.53599 24.4197,16.93387 5.01959,0 5.15055,-7.17 10.80244,-7.17 5.65192,0 5.76582,7.17 10.78539,7.17 11.72837,-0.39788 24.43624,-7.87119 24.43624,-16.93387 v -4.2895 c 0,-9.06268 -12.91509,-12.56934 -24.64346,-12.96723 z" /><path
       id="path573"
       style="fill:url(#linearGradient587);fill-opacity:1;stroke:none;stroke-width:0.264583px;stroke-linecap:butt;stroke-linejoin:miter;stroke-opacity:1"
       d="m 392.80762,-178.80463 c -1.45058,0 -2.13354,2.78106 -2.63342,6.33864 4.9714,0.54808 16.76516,5.46361 28.72765,5.46663 11.96252,-0.003 23.75675,-4.91855 28.72815,-5.46663 -0.49988,-3.55758 -1.18332,-6.33864 -2.6339,-6.33864 -3.87538,0 -14.90326,4.87232 -26.09425,4.87512 -11.19096,-0.003 -22.21885,-4.87512 -26.09423,-4.87512 z" /><path
       id="path575"
       style="fill:url(#linearGradient585);fill-opacity:1;stroke:none;stroke-width:0.264583px;stroke-linecap:butt;stroke-linejoin:miter;stroke-opacity:1"
       d="m 390.46249,-174.3366 c -3.12076,0 -2.98586,10.82795 -4.47879,17.10851 h 32.9184 32.91841 c -1.49293,-6.28056 -1.35803,-17.10851 -4.4788,-17.10851 -4.22371,0 -16.24278,4.8739 -28.43961,4.8767 -12.19683,-0.003 -24.2159,-4.8767 -28.43961,-4.8767 z" /><path
       id="path577"
       style="fill:url(#linearGradient583);fill-opacity:1;stroke-width:0.555625;stroke-linecap:round;paint-order:markers fill stroke"
       d="m 408.32379,-168.0887 c -11.72837,0.39788 -24.64346,3.90453 -24.64346,12.96721 v 4.2895 c 0,9.06268 12.69133,16.53599 24.4197,16.93387 5.01959,0 5.15055,-7.17 10.80244,-7.17 5.65192,0 5.76582,7.17 10.78539,7.17 11.72837,-0.39788 24.43624,-7.87119 24.43624,-16.93387 v -4.2895 c 0,-9.06268 -12.91509,-12.56933 -24.64346,-12.96721 z" /><path
       id="path579"
       style="fill:url(#linearGradient581);fill-opacity:1;stroke-width:0.555625;stroke-linecap:round;paint-order:markers fill stroke"
       d="m 408.32379,-164.9137 c -11.72837,0.39789 -24.64346,3.90455 -24.64346,12.96723 v 4.2895 c 0,9.06268 12.69133,16.53599 24.4197,16.93387 5.01959,0 5.15055,-7.17 10.80244,-7.17 5.65192,0 5.76582,7.17 10.78539,7.17 11.72837,-0.39788 24.43624,-7.87119 24.43624,-16.93387 v -4.2895 c 0,-9.06268 -12.91509,-12.56934 -24.64346,-12.96723 z" /><path
       id="path603"
       style="fill:url(#linearGradient617);fill-opacity:1;stroke:none;stroke-width:0.264583px;stroke-linecap:butt;stroke-linejoin:miter;stroke-opacity:1"
       d="m 379.8491,-94.665805 c -1.45058,0 -2.13354,2.78106 -2.63342,6.33864 4.9714,0.54808 16.76516,5.46361 28.72765,5.46663 11.96252,-0.003 23.75675,-4.91855 28.72815,-5.46663 -0.49988,-3.55758 -1.18332,-6.33864 -2.6339,-6.33864 -3.87538,0 -14.90326,4.87232 -26.09425,4.87512 -11.19096,-0.003 -22.21885,-4.87512 -26.09423,-4.87512 z" /><path
       id="path605"
       style="fill:url(#linearGradient615);fill-opacity:1;stroke:none;stroke-width:0.264583px;stroke-linecap:butt;stroke-linejoin:miter;stroke-opacity:1"
       d="m 377.50397,-90.197775 c -3.12076,0 -2.98586,10.82796 -4.47879,17.10852 h 32.9184 32.91841 c -1.49293,-6.28056 -1.35803,-17.10852 -4.4788,-17.10852 -4.22371,0 -16.24278,4.8739 -28.43961,4.8767 -12.19683,-0.003 -24.2159,-4.8767 -28.43961,-4.8767 z" /><path
       id="path607"
       style="fill:url(#linearGradient613);fill-opacity:1;stroke-width:0.555625;stroke-linecap:round;paint-order:markers fill stroke"
       d="m 395.36527,-83.949875 c -11.72837,0.39788 -24.64346,3.90454 -24.64346,12.96722 v 4.2895 c 0,9.06268 12.69133,16.53599 24.4197,16.93387 5.01959,0 5.15055,-7.17 10.80244,-7.17 5.65192,0 5.76582,7.17 10.78539,7.17 11.72837,-0.39788 24.43624,-7.87119 24.43624,-16.93387 v -4.2895 c 0,-9.06268 -12.91509,-12.56934 -24.64346,-12.96722 z" /><path
       id="path609"
       style="fill:url(#linearGradient611);fill-opacity:1;stroke-width:0.555625;stroke-linecap:round;paint-order:markers fill stroke"
       d="m 395.36527,-80.774865 c -11.72837,0.39789 -24.64346,3.90455 -24.64346,12.96723 v 4.2895 c 0,9.06268 12.69133,16.53599 24.4197,16.93387 5.01959,0 5.15055,-7.17 10.80244,-7.17 5.65192,0 5.76582,7.17 10.78539,7.17 11.72837,-0.39788 24.43624,-7.87119 24.43624,-16.93387 v -4.2895 c 0,-9.06268 -12.91509,-12.56934 -24.64346,-12.96723 z" /><path
       id="path1263"
       style="fill:url(#linearGradient1281);fill-opacity:1;stroke:none;stroke-width:0.264583px;stroke-linecap:butt;stroke-linejoin:miter;stroke-opacity:1"
       d="m 164.45411,-283.14833 c -1.45058,0 -2.13354,2.78107 -2.63342,6.33865 4.9714,0.54807 16.76516,5.4636 28.72765,5.46662 11.96252,-0.003 23.75675,-4.91854 28.72815,-5.46662 -0.49988,-3.55758 -1.18332,-6.33865 -2.6339,-6.33865 -3.87538,0 -14.90326,4.87233 -26.09425,4.87513 -11.19096,-0.003 -22.21885,-4.87513 -26.09423,-4.87513 z" /><path
       id="path1265"
       style="fill:url(#linearGradient1279);fill-opacity:1;stroke:none;stroke-width:0.264583px;stroke-linecap:butt;stroke-linejoin:miter;stroke-opacity:1"
       d="m 162.10898,-278.6803 c -3.12076,0 -4.04419,12.94463 -5.53712,19.2252 l 33.97673,-2.11667 33.97674,2.11667 c -1.49293,-6.28057 -2.41636,-19.2252 -5.53713,-19.2252 -4.22371,0 -16.24278,4.87391 -28.43961,4.87671 -12.19683,-0.003 -24.2159,-4.87671 -28.43961,-4.87671 z"
       sodipodi:nodetypes="scccscs" /><path
       id="path1267"
       style="fill:url(#linearGradient1277);fill-opacity:1;stroke-width:0.555625;stroke-linecap:round;paint-order:markers fill stroke"
       d="m 179.97028,-269.7692 c -11.72837,0.36408 -24.64346,3.57276 -24.64346,11.86538 v 3.92501 c 0,8.29261 12.69133,15.1309 24.4197,15.49498 5.01959,0 5.15055,-6.56076 10.80244,-6.56076 5.65192,0 5.76582,6.56076 10.78539,6.56076 11.72837,-0.36408 24.43624,-7.20237 24.43624,-15.49498 v -3.92501 c 0,-8.29262 -12.91509,-11.5013 -24.64346,-11.86538 z" /><path
       id="path1269"
       style="fill:url(#linearGradient1275);fill-opacity:1;stroke-width:0.555625;stroke-linecap:round;paint-order:markers fill stroke"
       d="m 179.97028,-266.86398 c -11.72837,0.36408 -24.64346,3.57278 -24.64346,11.86539 v 3.92502 c 0,8.29261 12.69133,15.1309 24.4197,15.49497 5.01959,0 5.15055,-6.56075 10.80244,-6.56075 5.65192,0 5.76582,6.56075 10.78539,6.56075 11.72837,-0.36407 24.43624,-7.20236 24.43624,-15.49497 v -3.92502 c 0,-8.29261 -12.91509,-11.50131 -24.64346,-11.86539 z" /><path
       id="path1271"
       style="fill:none;fill-opacity:1;stroke:url(#linearGradient1273);stroke-width:2.64584;stroke-linecap:round;stroke-dasharray:none;paint-order:markers fill stroke"
       d="m 180.3676,-266.25624 c -11.28785,0.34994 -23.71786,3.43397 -23.71786,11.4044 v 3.77253 c 0,7.97044 12.21465,14.54304 23.5025,14.89297 4.83107,0 4.95711,-6.30585 10.39672,-6.30585 5.43963,0 5.54926,6.30585 10.38029,6.30585 11.28786,-0.34993 23.51843,-6.92253 23.51843,-14.89297 v -3.77253 c 0,-7.97043 -12.43,-11.05446 -23.71787,-11.4044 z" /><path
       id="path1300"
       style="fill:url(#linearGradient1316);fill-opacity:1;stroke:none;stroke-width:0.264583px;stroke-linecap:butt;stroke-linejoin:miter;stroke-opacity:1"
       d="m 265.16415,-76.730935 c -1.20931,0 -1.77867,2.78107 -2.19541,6.33864 4.14452,0.54808 13.97666,5.46361 23.94947,5.46663 9.97283,-0.003 19.80536,-4.91855 23.94989,-5.46663 -0.41674,-3.55757 -0.98651,-6.33864 -2.19581,-6.33864 -3.23081,0 -12.42445,4.87233 -21.75408,4.87512 -9.3296,-0.003 -18.52326,-4.87512 -21.75406,-4.87512 z" /><path
       id="path1302"
       style="fill:url(#linearGradient1318);fill-opacity:1;stroke:none;stroke-width:0.264583px;stroke-linecap:butt;stroke-linejoin:miter;stroke-opacity:1"
       d="m 263.20908,-72.262905 c -2.60169,0 -3.37153,12.94463 -4.61615,19.2252 l 28.32549,-2.11667 28.32549,2.11667 c -1.24461,-6.28057 -2.01445,-19.2252 -4.61615,-19.2252 -3.5212,0 -13.54117,4.87391 -23.70934,4.87671 -10.16817,-0.003 -20.18815,-4.87671 -23.70934,-4.87671 z"
       sodipodi:nodetypes="scccscs" /><path
       id="path1304"
       style="fill:url(#linearGradient1320);fill-opacity:1;stroke-width:0.555625;stroke-linecap:round;paint-order:markers fill stroke"
       d="m 278.09957,-63.351805 c -9.77763,0.36408 -20.5446,3.57276 -20.5446,11.86538 v 3.92501 c 0,8.29261 10.58043,15.1309 20.35805,15.49498 4.1847,0 4.29388,-6.56076 9.00571,-6.56076 4.71185,0 4.80681,6.56076 8.99149,6.56076 9.77762,-0.36408 20.37183,-7.20237 20.37183,-15.49498 v -3.92501 c 0,-8.29262 -10.76696,-11.5013 -20.54459,-11.86538 z" /><path
       id="path1306"
       style="fill:url(#linearGradient1322);fill-opacity:1;stroke-width:0.555625;stroke-linecap:round;paint-order:markers fill stroke"
       d="m 278.09957,-60.446585 c -9.77763,0.36408 -20.5446,3.57278 -20.5446,11.86539 v 3.92502 c 0,8.29261 10.58043,15.1309 20.35805,15.49497 4.1847,0 4.29388,-6.56075 9.00571,-6.56075 4.71185,0 4.80681,6.56075 8.99149,6.56075 9.77762,-0.36407 20.37183,-7.20236 20.37183,-15.49497 v -3.92502 c 0,-8.29261 -10.76696,-11.50131 -20.54459,-11.86539 z" /><path
       id="path1503"
       style="fill:url(#linearGradient1512);fill-opacity:1;stroke-width:0.555625;stroke-linecap:round;paint-order:markers fill stroke"
       d="m 278.09982,-60.446395 c -9.77762,0.36408 -20.545,3.57282 -20.545,11.86543 v 3.92482 c 0,8.2926 10.58084,15.13111 20.35845,15.49518 4.18469,0 4.29382,-6.56084 9.00565,-6.56084 4.71184,0 4.8065,6.56084 8.99118,6.56084 9.77761,-0.36407 20.37188,-7.20258 20.37188,-15.49518 v -3.92482 c 0,-8.29261 -10.76686,-11.50135 -20.54448,-11.86543 z m 0.0599,2.11718 h 17.5178 c 9.36773,0.35215 18.48827,3.28843 18.48827,9.74825 v 3.92586 c 0,6.81189 -9.26768,13.00841 -18.27175,13.37076 -2.61069,-0.0291 -2.893,-6.55464 -8.97465,-6.55464 -6.07973,0 -6.37718,6.52556 -8.99014,6.55464 -9.00395,-0.36235 -18.2578,-6.55698 -18.2578,-13.37076 v -3.92586 c 0,-6.45982 9.12054,-9.3961 18.48827,-9.74825 z" /><path
       id="path1481"
       style="fill:url(#linearGradient1501);fill-opacity:1;stroke:none;stroke-width:0.264583px;stroke-linecap:butt;stroke-linejoin:miter;stroke-opacity:1"
       d="m 149.69376,-76.730935 c -1.20931,0 -1.77867,2.78107 -2.19541,6.33864 4.14452,0.54808 13.97666,5.46361 23.94947,5.46663 9.97283,-0.003 19.80536,-4.91855 23.94989,-5.46663 -0.41674,-3.55757 -0.98651,-6.33864 -2.19581,-6.33864 -3.23081,0 -12.42445,4.87233 -21.75408,4.87512 -9.3296,-0.003 -18.52326,-4.87512 -21.75406,-4.87512 z" /><path
       id="path1483"
       style="fill:url(#linearGradient1499);fill-opacity:1;stroke:none;stroke-width:0.264583px;stroke-linecap:butt;stroke-linejoin:miter;stroke-opacity:1"
       d="m 147.73869,-72.262905 c -2.60169,0 -3.37153,12.94463 -4.61615,19.2252 l 28.32549,-2.11667 28.32549,2.11667 c -1.24461,-6.28057 -2.01445,-19.2252 -4.61615,-19.2252 -3.5212,0 -13.54117,4.87391 -23.70934,4.87671 -10.16817,-0.003 -20.18815,-4.87671 -23.70934,-4.87671 z"
       sodipodi:nodetypes="scccscs" /><path
       id="path1485"
       style="fill:url(#linearGradient1497);fill-opacity:1;stroke-width:0.555625;stroke-linecap:round;paint-order:markers fill stroke"
       d="m 162.62918,-63.351805 c -9.77763,0.36408 -20.5446,3.57276 -20.5446,11.86538 v 3.92501 c 0,8.29261 10.58043,15.1309 20.35805,15.49498 4.1847,0 4.29388,-6.56076 9.00571,-6.56076 4.71185,0 4.80681,6.56076 8.99149,6.56076 9.77762,-0.36408 20.37183,-7.20237 20.37183,-15.49498 v -3.92501 c 0,-8.29262 -10.76696,-11.5013 -20.54459,-11.86538 z" /><path
       id="path1487"
       style="fill:url(#linearGradient1495);fill-opacity:1;stroke-width:0.555625;stroke-linecap:round;paint-order:markers fill stroke"
       d="m 162.62918,-60.446585 c -9.77763,0.36408 -20.5446,3.57278 -20.5446,11.86539 v 3.92502 c 0,8.29261 10.58043,15.1309 20.35805,15.49497 4.1847,0 4.29388,-6.56075 9.00571,-6.56075 4.71185,0 4.80681,6.56075 8.99149,6.56075 9.77762,-0.36407 20.37183,-7.20236 20.37183,-15.49497 v -3.92502 c 0,-8.29261 -10.76696,-11.50131 -20.54459,-11.86539 z" /><path
       id="path1489"
       style="fill:#ffa348;fill-opacity:1;stroke-width:0.555625;stroke-linecap:round;paint-order:markers fill stroke"
       d="m 162.68945,-58.330078 h 17.51758 c 9.36774,0.352149 18.48828,3.288222 18.48828,9.748047 v 3.925781 c 0,6.811893 -9.2674,13.008749 -18.27148,13.371094 -2.6107,-0.02913 -2.89296,-6.554688 -8.97461,-6.554688 -6.07975,0 -6.37726,6.525613 -8.99024,6.554688 -9.00394,-0.362349 -18.25781,-6.557324 -18.25781,-13.371094 v -3.925781 c 0,-6.459823 9.12055,-9.395898 18.48828,-9.748047 z"
       inkscape:path-effect="#path-effect1493"
       inkscape:original-d="m 162.62918,-60.446585 c -9.77763,0.36408 -20.5446,3.57278 -20.5446,11.86539 v 3.92502 c 0,8.29261 10.58043,15.1309 20.35805,15.49497 4.1847,0 4.29388,-6.56075 9.00571,-6.56075 4.71185,0 4.80681,6.56075 8.99149,6.56075 9.77762,-0.36407 20.37183,-7.20236 20.37183,-15.49497 v -3.92502 c 0,-8.29261 -10.76696,-11.50131 -20.54459,-11.86539 z" /><path
       id="path1514"
       style="fill:url(#linearGradient1532);fill-opacity:1;stroke:none;stroke-width:0.264583px;stroke-linecap:butt;stroke-linejoin:miter;stroke-opacity:1"
       d="m 235.80053,102.32091 c -1.20931,0 -1.77867,2.78107 -2.19541,6.33864 4.14452,0.54808 13.97666,5.46361 23.94947,5.46663 9.97283,-0.003 19.80536,-4.91855 23.94989,-5.46663 -0.41674,-3.55757 -0.98651,-6.33864 -2.19581,-6.33864 -3.23081,0 -12.42445,4.87233 -21.75408,4.87512 -9.3296,-0.003 -18.52326,-4.87512 -21.75406,-4.87512 z" /><path
       id="path1516"
       style="fill:url(#linearGradient1530);fill-opacity:1;stroke:none;stroke-width:0.264583px;stroke-linecap:butt;stroke-linejoin:miter;stroke-opacity:1"
       d="m 233.84546,106.78894 c -2.60169,0 -3.37153,12.94463 -4.61615,19.2252 l 28.32549,-2.11667 28.32549,2.11667 c -1.24461,-6.28057 -2.01445,-19.2252 -4.61615,-19.2252 -3.5212,0 -13.54117,4.87391 -23.70934,4.87671 -10.16817,-0.003 -20.18815,-4.87671 -23.70934,-4.87671 z"
       sodipodi:nodetypes="scccscs" /><path
       id="path1518"
       style="fill:url(#linearGradient1528);fill-opacity:1;stroke-width:0.555625;stroke-linecap:round;paint-order:markers fill stroke"
       d="m 248.73595,115.70004 c -9.77763,0.36408 -20.5446,3.57276 -20.5446,11.86538 v 3.92501 c 0,8.29261 10.58043,15.1309 20.35805,15.49498 4.1847,0 4.29388,-6.56076 9.00571,-6.56076 4.71185,0 4.80681,6.56076 8.99149,6.56076 9.77762,-0.36408 20.37183,-7.20237 20.37183,-15.49498 v -3.92501 c 0,-8.29262 -10.76696,-11.5013 -20.54459,-11.86538 z" /><path
       id="path1520"
       style="fill:url(#linearGradient1526);fill-opacity:1;stroke-width:0.555625;stroke-linecap:round;paint-order:markers fill stroke"
       d="m 248.73595,118.60526 c -9.77763,0.36408 -20.5446,3.57278 -20.5446,11.86539 v 3.92502 c 0,8.29261 10.58043,15.1309 20.35805,15.49497 4.1847,0 4.29388,-6.56075 9.00571,-6.56075 4.71185,0 4.80681,6.56075 8.99149,6.56075 9.77762,-0.36407 20.37183,-7.20236 20.37183,-15.49497 v -3.92502 c 0,-8.29261 -10.76696,-11.50131 -20.54459,-11.86539 z" /><path
       id="path1522"
       style="fill:url(#linearGradient1524);fill-opacity:1;stroke-width:0.555625;stroke-linecap:round;paint-order:markers fill stroke"
       d="m 248.7362,118.60545 c -9.77762,0.36408 -20.545,3.57282 -20.545,11.86543 v 3.92482 c 0,8.2926 10.58084,15.13111 20.35845,15.49518 4.18469,0 4.29382,-6.56084 9.00565,-6.56084 4.71184,0 4.8065,6.56084 8.99118,6.56084 9.77761,-0.36407 20.37188,-7.20258 20.37188,-15.49518 v -3.92482 c 0,-8.29261 -10.76686,-11.50135 -20.54448,-11.86543 z m 0.0599,2.11718 h 17.5178 c 9.36773,0.35215 18.48827,3.28843 18.48827,9.74825 v 3.92586 c 0,6.81189 -9.26768,13.00841 -18.27175,13.37076 -2.61069,-0.0291 -2.893,-6.55464 -8.97465,-6.55464 -6.07973,0 -6.37718,6.52556 -8.99014,6.55464 -9.00395,-0.36235 -18.2578,-6.55698 -18.2578,-13.37076 v -3.92586 c 0,-6.45982 9.12054,-9.3961 18.48827,-9.74825 z" /><path
       id="path1520-6"
       style="display:inline;fill:none;fill-opacity:1;stroke:#000000;stroke-width:0.264583;stroke-linecap:round;stroke-dasharray:none;paint-order:markers fill stroke;enable-background:new"
       d="m 308.53532,153.64613 c -0.66077,0.0246 -1.3884,0.24173 -1.3884,0.80278 v 0.26555 c 0,0.56106 0.71503,1.02371 1.37579,1.04834 0.2828,0 0.29018,-0.44388 0.60861,-0.44388 0.31842,0 0.32484,0.44388 0.60763,0.44388 0.66077,-0.0246 1.37672,-0.48728 1.37672,-1.04834 v -0.26555 c 0,-0.56105 -0.72762,-0.77814 -1.38839,-0.80278 z" /><path
       id="path1516-2"
       style="display:inline;fill:none;fill-opacity:1;stroke:#000000;stroke-width:0.264583px;stroke-linecap:butt;stroke-linejoin:miter;stroke-opacity:1;enable-background:new"
       d="m 310.85109,153.98454 c 0,-0.37017 -0.12231,-1.13216 -0.28027,-1.13216 -0.21379,0 -0.82216,0.30185 -1.43952,0.30203 -0.61737,-1.9e-4 -1.22573,-0.30203 -1.43952,-0.30203 -0.15796,0 -0.28027,0.7844 -0.28027,1.13216"
       sodipodi:nodetypes="cscsc" /></g></svg>
